…
### Examples

#### 1. Test without optional parameters

``` r
#Example of finding mean without optional input

gap_lfExp_mean = find_mean(gapminder, lifeExp)
print(gap_lfExp_mean)
```

    ## # A tibble: 1,704 x 7
    ##    country     continent  year lifeExp      pop gdpPercap mean.lifeExp
    ##    <fct>       <fct>     <int>   <dbl>    <int>     <dbl>        <dbl>
    ##  1 Afghanistan Asia       1952    28.8  8425333      779.         59.5
    ##  2 Afghanistan Asia       1957    30.3  9240934      821.         59.5
    ##  3 Afghanistan Asia       1962    32.0 10267083      853.         59.5
    ##  4 Afghanistan Asia       1967    34.0 11537966      836.         59.5
    ##  5 Afghanistan Asia       1972    36.1 13079460      740.         59.5
    ##  6 Afghanistan Asia       1977    38.4 14880372      786.         59.5
    ##  7 Afghanistan Asia       1982    39.9 12881816      978.         59.5
    ##  8 Afghanistan Asia       1987    40.8 13867957      852.         59.5
    ##  9 Afghanistan Asia       1992    41.7 16317921      649.         59.5
    ## 10 Afghanistan Asia       1997    41.8 22227415      635.         59.5
    ## # ... with 1,694 more rows

#### 2. Test with optional parameters

``` r
#Example of finding mean with optional input

lifeExp_coun_mean = find_mean(gapminder, lifeExp, country)
print(lifeExp_coun_mean)
```

    ## # A tibble: 1,704 x 7
    ## # Groups:   country [142]
    ##    country     continent  year lifeExp      pop gdpPercap mean.lifeExp
    ##    <fct>       <fct>     <int>   <dbl>    <int>     <dbl>        <dbl>
    ##  1 Afghanistan Asia       1952    28.8  8425333      779.         37.5
    ##  2 Afghanistan Asia       1957    30.3  9240934      821.         37.5
    ##  3 Afghanistan Asia       1962    32.0 10267083      853.         37.5
    ##  4 Afghanistan Asia       1967    34.0 11537966      836.         37.5
    ##  5 Afghanistan Asia       1972    36.1 13079460      740.         37.5
    ##  6 Afghanistan Asia       1977    38.4 14880372      786.         37.5
    ##  7 Afghanistan Asia       1982    39.9 12881816      978.         37.5
    ##  8 Afghanistan Asia       1987    40.8 13867957      852.         37.5
    ##  9 Afghanistan Asia       1992    41.7 16317921      649.         37.5
    ## 10 Afghanistan Asia       1997    41.8 22227415      635.         37.5
    ## # ... with 1,694 more rows
…
